{
  "profiles": {
    "TvMazeScrapperDP.Api": {
      "commandName": "Project",
      "launchBrowser": true,
      "environmentVariables": {
        "ASPNETCORE_ENVIRONMENT": "Development"
      },
      "applicationUrl": "https://localhost:52352;http://localhost:52353"
    }
  }
}